Introduction to R and RStudio
…
The column or row may be omitted to retrieve the entire row or column.

variants[4,]

# A tibble: 1 × 29
  sample_id  CHROM    POS ID    REF   ALT    QUAL FILTER INDEL   IDV   IMF    DP
  <chr>      <chr>  <dbl> <lgl> <chr> <chr> <dbl> <lgl>  <lgl> <dbl> <dbl> <dbl>
1 SRR2584863 CP00… 433359 NA    CTTT… CTTT…    64 NA     TRUE     12     1    12
# ℹ 17 more variables: VDB <dbl>, RPB <dbl>, MQB <dbl>, BQB <dbl>, MQSB <dbl>,
#   SGB <dbl>, MQ0F <dbl>, ICB <lgl>, HOB <lgl>, AC <dbl>, AN <dbl>, DP4 <chr>,
#   MQ <dbl>, Indiv <chr>, gt_PL <dbl>, gt_GT <dbl>, gt_GT_alleles <chr>

variants[, "REF"]

# A tibble: 801 × 1
   REF                             
   <chr>                           
 1 T                               
 2 G                               
 3 G                               
 4 CTTTTTTT                        
 5 CCGC                            
 6 C                               
 7 C                               
 8 G                               
 9 ACAGCCAGCCAGCCAGCCAGCCAGCCAGCCAG
10 AT                              
# ℹ 791 more rows
…
You can use a vector to retrieve specific rows or columns you may want. This vector can be a named object or created on the spot and passed as an argument in the subsetting.

columns_desired <- c(1:3,6:7, 9)
variants[, columns_desired] # same as variants[,c(1:3,6:7, 9)]

# A tibble: 801 × 6
   sample_id  CHROM          POS ALT                                  QUAL INDEL
   <chr>      <chr>        <dbl> <chr>                               <dbl> <lgl>
 1 SRR2584863 CP000819.1    9972 G                                      91 FALSE
 2 SRR2584863 CP000819.1  263235 T                                      85 FALSE
 3 SRR2584863 CP000819.1  281923 T                                     217 FALSE
 4 SRR2584863 CP000819.1  433359 CTTTTTTTT                              64 TRUE 
 5 SRR2584863 CP000819.1  473901 CCGCGC                                228 TRUE 
 6 SRR2584863 CP000819.1  648692 T                                     210 FALSE
 7 SRR2584863 CP000819.1 1331794 A                                     178 FALSE
 8 SRR2584863 CP000819.1 1733343 A                                     225 FALSE
 9 SRR2584863 CP000819.1 2103887 ACAGCCAGCCAGCCAGCCAGCCAGCCAGCCAGCC…    56 TRUE 
10 SRR2584863 CP000819.1 2333538 ATT                                   167 TRUE 
# ℹ 791 more rows
…
