Data Wrangling with R
…
Now,that the tidyverse is loaded, we can use it to import some data into our RStudio session. We are using a function from the readr package called read_csv(). This function takes as an argument the path to where the file is located. Let’s start by reading in measles_us file in the /data folder.

read_csv("data/measles_us.csv")

Rows: 422051 Columns: 15
── Column specification ────────────────────────────────────────────────────────
Delimiter: ","
chr (11): ConditionName, PathogenName, CountryName, CountryISO, Admin1Name, ...
dbl  (3): ConditionSNOMED, PartOfCumulativeCountSeries, CountValue
lgl  (1): DiagnosisCertainty

ℹ Use `spec()` to retrieve the full column specification for this data.
ℹ Specify the column types or set `show_col_types = FALSE` to quiet this message.

# A tibble: 422,051 × 15
   ConditionName ConditionSNOMED PathogenName  CountryName CountryISO Admin1Name
   <chr>                   <dbl> <chr>         <chr>       <chr>      <chr>     
 1 Measles              14189004 Measles virus UNITED STA… US         WISCONSIN 
 2 Measles              14189004 Measles virus UNITED STA… US         WISCONSIN 
 3 Measles              14189004 Measles virus UNITED STA… US         WISCONSIN 
 4 Measles              14189004 Measles virus UNITED STA… US         WISCONSIN 
 5 Measles              14189004 Measles virus UNITED STA… US         WISCONSIN 
 6 Measles              14189004 Measles virus UNITED STA… US         WISCONSIN 
 7 Measles              14189004 Measles virus UNITED STA… US         WISCONSIN 
 8 Measles              14189004 Measles virus UNITED STA… US         WISCONSIN 
 9 Measles              14189004 Measles virus UNITED STA… US         WISCONSIN 
10 Measles              14189004 Measles virus UNITED STA… US         WISCONSIN 
# ℹ 422,041 more rows
# ℹ 9 more variables: Admin1ISO <chr>, Admin2Name <chr>, CityName <chr>,
#   PeriodStartDate <chr>, PeriodEndDate <chr>,
#   PartOfCumulativeCountSeries <dbl>, DiagnosisCertainty <lgl>,
#   SourceName <chr>, CountValue <dbl>
…
glimpse(measles_us)

distinct() returns the distinct rows in a tibble. It can be used on a column to return the distinct values in that column. The first argument you supply is the tibble object. Subsequent arguments include the variables you want to count.

distinct(measles_us, ConditionName)

# A tibble: 1 × 1
  ConditionName
  <chr>        
1 Measles      

distinct(measles_us, Admin1Name)

# A tibble: 56 × 1
   Admin1Name
   <chr>     
 1 WISCONSIN 
 2 OHIO      
 3 MICHIGAN  
 4 NEVADA    
 5 NEW JERSEY
 6 WASHINGTON
 7 DELAWARE  
 8 KENTUCKY  
 9 WYOMING   
10 INDIANA   
# ℹ 46 more rows

count() is similar to distinct() but also returns the number of observations (i.e. rows) for each of those distinct values. The first argument you supply is the tibble object. Subsequent arguments include the variables you want to count.

 count(measles_us, Admin1Name) 

# A tibble: 56 × 2
   Admin1Name               n
   <chr>                <int>
 1 ALABAMA               7458
 2 ALASKA                1869
 3 AMERICAN SAMOA         118
 4 ARIZONA               4685
 5 ARKANSAS              5643
 6 CALIFORNIA           14354
 7 COLORADO              8042
 8 CONNECTICUT          10816
 9 DELAWARE              4507
10 DISTRICT OF COLUMBIA  5027
# ℹ 46 more rows

%">

Make code flow with the pipe %>%

Before we go any further - I want to introduce you to an important time-saving symbol in R called the pipe %>% (CTRL + SHIFT + M). The pipe allows you to take the output of the left-hand expression and make it the input of the right-hand expression. It allows you to chain together multiple functions and avoid nesting. With the pipe, we can rewrite the above code as follows:

measles_us %>% 
  count(Admin1Name)

# A tibble: 56 × 2
   Admin1Name               n
   <chr>                <int>
 1 ALABAMA               7458
 2 ALASKA                1869
 3 AMERICAN SAMOA         118
 4 ARIZONA               4685
 5 ARKANSAS              5643
 6 CALIFORNIA           14354
 7 COLORADO              8042
 8 CONNECTICUT          10816
 9 DELAWARE              4507
10 DISTRICT OF COLUMBIA  5027
# ℹ 46 more rows
…
Subsetting data with select() and filter()

Real data sets can be quite large. So, once you’ve explored your data, you may want to start trimming it down to just the variables and conditions you’re interested in. In this section, we’ll look at two functions from the tidyverse package called dplyr: select() which lets you choose columns (variables) and filter() which lets you choose rows. (Note: dplyr is known for using easy to understand verbs for its function names.)

select()

select() lets you choose columns by name. The syntax of this function is similar to the the ones we’ve already learned count() and distinct(). We need to supply the function with the name of the tibble and the columns. This will create a new tibble with just those columns.

As with all tidyverse functions, we can use %>% to make this easier.

measles_us %>% 
select(Admin1Name, CountValue)

# A tibble: 422,051 × 2
   Admin1Name CountValue
   <chr>           <dbl>
 1 WISCONSIN          85
 2 WISCONSIN         120
 3 WISCONSIN          84
 4 WISCONSIN         106
 5 WISCONSIN          39
 6 WISCONSIN          45
 7 WISCONSIN          28
 8 WISCONSIN         140
 9 WISCONSIN          48
10 WISCONSIN          85
# ℹ 422,041 more rows

If you want to select several columns that are next to each other, you can use : to specify a range, rather than writing each name out separately.

measles_us %>% 
select( ConditionName:Admin1ISO)

# A tibble: 422,051 × 7
   ConditionName ConditionSNOMED PathogenName  CountryName CountryISO Admin1Name
   <chr>                   <dbl> <chr>         <chr>       <chr>      <chr>     
 1 Measles              14189004 Measles virus UNITED STA… US         WISCONSIN 
 2 Measles              14189004 Measles virus UNITED STA… US         WISCONSIN 
 3 Measles              14189004 Measles virus UNITED STA… US         WISCONSIN 
 4 Measles              14189004 Measles virus UNITED STA… US         WISCONSIN 
 5 Measles              14189004 Measles virus UNITED STA… US         WISCONSIN 
 6 Measles              14189004 Measles virus UNITED STA… US         WISCONSIN 
 7 Measles              14189004 Measles virus UNITED STA… US         WISCONSIN 
 8 Measles              14189004 Measles virus UNITED STA… US         WISCONSIN 
 9 Measles              14189004 Measles virus UNITED STA… US         WISCONSIN 
10 Measles              14189004 Measles virus UNITED STA… US         WISCONSIN 
# ℹ 422,041 more rows
# ℹ 1 more variable: Admin1ISO <chr>
…
Note that after running our code, our resulting tibble (our new object measles_md) has 7246 observations (rows) while our original tibble had 422051.

Warning

When matching strings you must be exact. R is case-sensitive. So state == "Maryland" or state == "maryland" would return 0 rows.

You can add additional conditions to filter by, separated other logical operators like &, >, and >.

Below we want just the rows for Maryland, and only include periods where the count was more than 500 reported cases. Note that while you need quotation marks around character data, you do not need them around numeric data.

measles_select %>%
  filter(state == "MARYLAND" & CountValue > 500)

# A tibble: 328 × 5
   state    PeriodStartDate PeriodEndDate PartOfCumulativeCountSeries CountValue
   <chr>    <chr>           <chr>                               <dbl>      <dbl>
 1 MARYLAND 1/29/1928       2/4/1928                                0        504
 2 MARYLAND 2/5/1928        2/11/1928                               0        563
 3 MARYLAND 2/12/1928       2/18/1928                               0        696
 4 MARYLAND 2/19/1928       2/25/1928                               0        750
 5 MARYLAND 2/26/1928       3/3/1928                                0       1012
 6 MARYLAND 3/4/1928        3/10/1928                               0        951
 7 MARYLAND 3/11/1928       3/17/1928                               0       1189
 8 MARYLAND 3/18/1928       3/24/1928                               0       1163
 9 MARYLAND 3/25/1928       3/31/1928                               0       1020
10 MARYLAND 4/1/1928        4/7/1928                                0        753
# ℹ 318 more rows
…
Many data analysis tasks can be approached using the split-apply-combine paradigm: split the data into groups, apply some analysis to each group, and then combine the results. dplyr makes this very easy through the use of the group_by() function.

group_by() is often used together with summarize(), which collapses each group into a single-row summary of that group. group_by() takes as arguments the column names that contain the categorical variables for which you want to calculate the summary statistics.

How can we calculate the total number of measles cases for each year?

First we need to group our data by year using our new Year column.

yearly_count <-
  measles_year %>%
  group_by(Year)

yearly_count

# A tibble: 332,138 × 6
# Groups:   Year [96]
   state   PeriodStartDate PeriodEndDate PartOfCumulativeCoun…¹ CountValue  Year
   <chr>   <date>          <date>                         <dbl>      <dbl> <dbl>
 1 WISCON… 1927-11-20      1927-11-26                         0         85  1927
 2 WISCON… 1927-11-27      1927-12-03                         0        120  1927
 3 WISCON… 1927-12-04      1927-12-10                         0         84  1927
 4 WISCON… 1927-12-18      1927-12-24                         0        106  1927
 5 WISCON… 1927-12-25      1927-12-31                         0         39  1927
 6 WISCON… 1928-01-01      1928-01-07                         0         45  1928
 7 WISCON… 1928-01-08      1928-01-14                         0         28  1928
 8 WISCON… 1928-01-15      1928-01-21                         0        140  1928
 9 WISCON… 1928-01-22      1928-01-28                         0         48  1928
10 WISCON… 1928-01-29      1928-02-04                         0         85  1928
# ℹ 332,128 more rows
# ℹ abbreviated name: ¹​PartOfCumulativeCountSeries

When you inspect your new tibble, everything should look the same. Grouping prepares your data for summarize, but it does not do anything visually to the data.

Now let’s trying summarizing that data. summarize() condenses the value of the group values to a single value per group. Like mutate(), we provide the function with the name of the new column that will hold the summary information. In this case, we will use the sum() function on the CountValue column and put this in a new column called TotalCount. Summarize will drop the columns that aren’t being used.

yearly_count <-
  measles_year %>%
  group_by(Year) %>%
  summarise(TotalCount = sum(CountValue))

yearly_count

# A tibble: 96 × 2
    Year TotalCount
   <dbl>      <dbl>
 1  1906       2345
 2  1907      40199
 3  1908      54471
 4  1909      49802
 5  1910      86984
 6  1911      59171
 7  1912      64773
 8  1913     111431
 9  1914      56440
10  1915      93579
# ℹ 86 more rows

A more useful view might be to look for yearly totals of case counts by state. We can group by two variables, Year, and then State.

yearly_count_state <-
  measles_year %>%
  group_by(Year, state) %>%
  summarise(TotalCount = sum(CountValue))

`summarise()` has grouped output by 'Year'. You can override using the
`.groups` argument.

yearly_count_state

# A tibble: 4,055 × 3
# Groups:   Year [96]
    Year state         TotalCount
   <dbl> <chr>              <dbl>
 1  1906 CALIFORNIA           224
 2  1906 CONNECTICUT           23
 3  1906 FLORIDA                4
 4  1906 ILLINOIS             187
 5  1906 INDIANA               20
 6  1906 KENTUCKY               2
 7  1906 MAINE                 26
 8  1906 MASSACHUSETTS        282
 9  1906 MICHIGAN             320
10  1906 MISSOURI             274
# ℹ 4,045 more rows

Notice how the use of pipes really comes in handy here. It saved us from having to create and keep track of a number of intermediate objects.

Sorting datasets with arrange()

Which state in which year had the highest case count? To easily find out, we can use the function arrange(). One of the arguments must be the column you want to sort on.

yearly_count_state %>% arrange(TotalCount)

# A tibble: 4,055 × 3
# Groups:   Year [96]
    Year state       TotalCount
   <dbl> <chr>            <dbl>
 1  1925 NEVADA               0
 2  1937 MISSISSIPPI          0
 3  1938 MISSISSIPPI          0
 4  1939 MISSISSIPPI          0
 5  1940 MISSISSIPPI          0
 6  1940 NEVADA               0
 7  1941 MISSISSIPPI          0
 8  1944 MISSISSIPPI          0
 9  1945 MISSISSIPPI          0
10  1906 TEXAS                1
# ℹ 4,045 more rows

By default, arrange sorts in ascending order. To sort by descending order we use together with the desc() function.

yearly_count_state %>% arrange(desc(TotalCount))

# A tibble: 4,055 × 3
# Groups:   Year [96]
    Year state        TotalCount
   <dbl> <chr>             <dbl>
 1  1938 PENNSYLVANIA     146467
 2  1941 PENNSYLVANIA     137180
 3  1938 ILLINOIS         127935
 4  1942 CALIFORNIA       116180
 5  1941 OHIO             114788
 6  1935 MICHIGAN         111413
 7  1941 NEW YORK         109663
 8  1938 MICHIGAN         109041
 9  1934 PENNSYLVANIA     107031
10  1938 WISCONSIN        104450
# ℹ 4,045 more rows
…
View(hist_pop_long)

Now our two datasets have similar structures, a column of state names, a column of years, and a column of values. Let’s join these two datasets by the state and year columns. Note that if both sets have the same column names, you do not need to specify anything in the by argument. We use a left join here which preserves all the rows in our measles dataset and adds the matching rows from the population dataset.

measles_joined<- yearly_count_state %>% 
  left_join(hist_pop_long, by=join_by(state, Year == DATE))

measles_joined

# A tibble: 4,055 × 4
# Groups:   Year [96]
    Year state         TotalCount pop1000
   <dbl> <chr>              <dbl>   <dbl>
 1  1906 CALIFORNIA           224    1976
 2  1906 CONNECTICUT           23    1033
 3  1906 FLORIDA                4     628
 4  1906 ILLINOIS             187    5309
 5  1906 INDIANA               20    2663
 6  1906 KENTUCKY               2    2234
 7  1906 MAINE                 26     729
 8  1906 MASSACHUSETTS        282    3107
 9  1906 MICHIGAN             320    2626
10  1906 MISSOURI             274    3223
# ℹ 4,045 more rows
…
